basic-alignment • alto
…
compute_refinement_scores(weights(result))
#> # A tibble: 55 x 3
#>    m     k_LDA refinement_score
#>    <fct> <int>            <dbl>
#>  1 1         1       0.00000276
#>  2 2         1       0.00000276
#>  3 2         2       0.00000276
#>  4 3         1       0.00000551
#>  5 3         2       0.00000551
#>  6 3         3       0.00000551
#>  7 4         1       0.0000165 
#>  8 4         2       0.0000165 
#>  9 4         3       0.0000165 
#> 10 4         4       0.0000165 
#> # … with 45 more rows
…
