Align topics from distinct LDA models — align_topics • alto
…
#>  4 3         1  6.67 0.333 1          0.458      0.464
#>  5 3         2  6.67 0.333 2          0.392      0.414
#>  6 3         3  6.67 0.333 3          0.382      0.386
#>  7 4         1  5.00 0.250 1          0.418      0.390
#>  8 4         2  5.00 0.250 2          0.411      0.320
#>  9 4         3  5.00 0.250 3          0.352      0.310
#> 10 4         4  5.00 0.250 4          0.470      0.369
#> 11 5         1  4.00 0.200 1          0.357      1    
#> 12 5         2  4.00 0.200 2          0.385      1    
#> 13 5         3  4.00 0.200 3          0.270      1    
#> 14 5         4  4.00 0.200 4          0.470      1    
#> 15 5         5  4.00 0.200 5          0          1    
weights(alignment)

#> # A tibble: 85 x 8
#>    m     m_next     k k_next weight document_mass bw_weight fw_weight
#>    <fct> <fct>  <int>  <int>  <dbl>         <dbl>     <dbl>     <dbl>
#>  1 1     2          1      1  0.500         10.0          1     0.500
#>  2 1     2          1      2  0.500         10.0          1     0.500
#>  3 1     3          1      1  0.333          6.67         1     0.333
#>  4 1     3          1      2  0.333          6.67         1     0.333
#>  5 1     3          1      3  0.333          6.67         1     0.333
#>  6 1     4          1      1  0.250          5.00         1     0.250
#>  7 1     4          1      2  0.250          5.00         1     0.250
#>  8 1     4          1      3  0.250          5.00         1     0.250
#>  9 1     4          1      4  0.250          5.00         1     0.250
#> 10 1     5          1      1  0.200          4.00         1     0.200
#> # … with 75 more rows
…
